…
Note que informamos o data frame `morfologia` no início, mas depois não foi mais informado o primeiro argumento de `group_by`, `summarize`, e `head`. Acontece que quando usamos o `%>%` o primeiro argumeto é entendido como o resultado da operação anterior.

Para dar outro exemplo da utilização do `%>%` vamos resumir as informações com base na localidade da coleta. Então agrupamos `morfologia` por `Localidade` e então computamos a média das variáveis `Massa.Foliar.Seca` e `Massa.Foliar.Turgida`, para este exemplo. O resultado final será assinalado ao objeto `massa.foliar`

``` r
massa.foliar <- morfologia %>%
  group_by(Localidade) %>%
  summarize(Massa.Foliar.seca = mean(massa.seca.foliar, na.rm = TRUE),
            Massa.Foliar.Turgida =  mean(massa.turgida.foliar, na.rm = TRUE))

massa.foliar
```

    ## # A tibble: 28 x 3
    ##            Localidade Massa.Foliar.seca Massa.Foliar.Turgida
    ##                <fctr>             <dbl>                <dbl>
    ##  1           Blumenau         0.0130000            0.0310000
    ##  2           Botuverá         0.1198864            0.3044545
    ##  3  Braço Paula Ramos         1.0200341            2.7317907
    ##  4 Braço Paula Ramos          0.1200000            0.2300000
    ##  5           Curitiba         0.1161818            0.2701818
    ##  6    Faxinal do Bepe         0.3664000            0.8510000
    ##  7               FURB         1.3061414            4.2093172
    ##  8        Gaspar alto         0.0028100            0.0064700
    ##  9           Ipiranga         0.3862412            1.1637062
    ## 10       Massaranduba         0.7902143            2.0643571
    ## # ... with 18 more rows
…
